{
  "dropbox_access_token": "tklZ49mZAWAAAAAAAAAABq_qtucho3A-viitBjlB_n-zMd1VgNLvSglFlTK7A4Ms",
  "dropbox_base_path": "",
  "camera": {
    "resolution": "VGA",
    "fps": 24
  },
  "detector": {
    "threshold": 2.0,
    "queue_size": 10
  }
}
